Top 50 Hubs (Score, Title)
(0.0028356619272973836,march_4)
(0.0028091597374332697,2007)
(0.0027897618396259404,march_3)
(0.0027667999106896,february_2)
(0.0027639559108993484,september_18)
(0.002760007255861672,march_11)
(0.002757418769540979,may_1)
(0.002756075114548685,november_1)
(0.0027529610538854464,january_22)
(0.0027501676739712607,may_28)
(0.0027482188429630502,august_19)
(0.002746683231497887,may_29)
(0.0027399558441182923,2005)
(0.002739936996348772,may_20)
(0.0027393409800459453,march_2)
(0.0027379803811839903,september_5)
(0.0027377926300459383,march_1)
(0.00273738244477371,2004)
(0.0027346079769258306,december_9)
(0.0027336505253115345,march_27)
(0.0027324448632242977,november_23)
(0.0027322955197467947,september_7)
(0.002730856255032159,may_18)
(0.0027302276100191194,september_28)
(0.002729949809715835,december_12)
(0.0027291759975101404,march_5)
(0.0027281379129156444,august_1)
(0.002725454074650214,june_24)
(0.0027253889789299085,october_1)
(0.0027239734349646717,june_12)
(0.002723892382433422,april_1)
(0.0027227930594749504,september_2)
(0.002721739647989504,september_1)
(0.002719948749556607,june_4)
(0.0027193506822953597,august_20)
(0.002718576780181858,january_12)
(0.0027179311171818383,june_16)
(0.002717685561315078,may_6)
(0.0027160236180283404,august_4)
(0.00271532734219276,august_8)
(0.0027145247442576896,december_6)
(0.002713585909112392,july_4)
(0.0027119815596560078,march_16)
(0.002711569514189015,june_23)
(0.002710976103934139,september_15)
(0.0027106333677178957,march_29)
(0.0027096967242529585,july_28)
(0.002709412639811488,january_7)
(0.002708504649464955,2002)
(0.0027083646609559475,may_2)
